:020000042000DA
:080FD8000208000001080000FE
:100FE00006080000020800000608000000080000D3
:100FF00000080000070800000008000005080000C5
:1010000001080000010800000608000001080000B7
:1010100005080000000800000108000007080000A3
:101020000108000005080000010800000008000099
:101030000608000001080000050800000008000084
:101040000108000007080000010800000508000072
:101050000108000001080000070800000108000066
:101060000508000002080000010800000608000052
:101070000008000006080000010800000108000048
:10108000050800000208000005080000FF07000036
:101090000008000006080000FF0700000508000027
:1010A0000108000001080000050800000008000019
:1010B0000608000000080000010800000508000004
:1010C000000800000508000000080000FF070000FD
:1010D00007080000020800000408000000080000E3
:1010E00002080000060800000008000005080000D3
:1010F00001080000010800000508000002080000C7
:1011000005080000FF070000FF07000006080000B8
:1011100000080000040800000108000001080000A9
:1011200004080000FF070000070800000008000096
:101130000108000005080000010800000508000083
:101140000008000001080000060800000108000077
:1011500005080000FF070000000800000508000067
:101160000108000004080000000800000208000058
:101170000508000000080000060800000108000043
:101180000008000005080000000800000408000036
:10119000FF07000002080000060800000008000029
:1011A0000408000000080000FF0700000508000018
:1011B0000108000005080000000800000008000009
:1011C00006080000000800000408000000080000F5
:1011D00001080000030800000008000005080000E6
:1011E00000080000000800000408000001080000DA
:1011F00005080000000800000208000006080000C2
:10120000000800000308000001080000FF070000BC
:10121000060800000208000004080000FF070000A4
:10122000FF07000007080000010800000508000093
:10123000FF07000002080000080800000108000085
:101240000208000001080000FF0700000508000078
:10125000FF07000005080000FF070000FF0700006F
:101260000608000000080000050800000008000053
:101270000008000006080000FF0700000508000045
:101280000108000000080000050800000008000038
:101290000708000001080000000800000608000020
:1012A0000108000005080000FF070000000800001A
:1012B0000608000000080000040800000008000004
:1012C00001080000070800000108000006080000EF
:1012D00000080000010800000508000000080000E8
:1012E00006080000000800000008000008080000D0
:1012F00001080000050800000208000000080000C6
:1013000006080000000800000508000000080000B2
:10131000FF070000050800000108000006080000A3
:101320000008000001080000060800000108000095
:1013300004080000FF070000010800000608000084
:101340000108000004080000010800000008000077
:101350000508000000080000060800000108000061
:101360000008000004080000010800000508000053
:101370000008000002080000070800000008000044
:10138000050800000108000002080000070800002E
:101390000008000006080000FF0700000008000029
:1013A0000408000002080000060800000008000011
:1013B000FF07000007080000010800000508000002
:1013C00001080000020800000508000000080000F5
:1013D0000308000002080000FF07000005080000E5
:1013E0000008000007080000FE07000000080000D9
:1013F00005080000000800000408000001080000C3
:10140000FE07000004080000FD07000004080000BB
:1014100000080000FE07000005080000FF070000AC
:101420000308000000080000000800000608000093
:101430000008000005080000020800000008000085
:1014400004080000FF070000040800000008000076
:10145000FE07000007080000FF0700000408000066
:101460000208000000080000040800000008000056
:101470000408000000080000000800000508000043
:101480000008000004080000000800000008000038
:101490000508000001080000040800000008000022
:1014A0000008000006080000FF0700000308000015
:1014B000FF070000FF07000006080000000800000A
:1014C0000408000000080000FE07000006080000F5
:1014D0000108000003080000FF070000FF070000EC
:1014E00005080000000800000308000001080000D3
:1014F000FF07000005080000FF07000004080000C7
:10150000FF070000000800000708000000080000B6
:1015100003080000000800000008000005080000A3
:10152000FF07000005080000010800000008000097
:101530000508000001080000040800000008000081
:101540000108000004080000FF0700000508000073
:101550000108000001080000050800000108000063
:101560000508000000080000FF0700000508000053
:101570000008000003080000FF0700000108000049
:1015800005080000FF070000030800000208000033
:10159000010800000508000001080000060800001E
:1015A0000008000000080000060800000108000014
:1015B00004080000FF070000020800000608000001
:1015C00000080000030800000208000000080000F6
:1015D00004080000000800000508000001080000E1
:1015E00001080000060800000108000004080000CF
:1015F000FF070000000800000608000002080000C5
:1016000003080000010800000108000005080000B0
:10161000FF070000050800000108000001080000A5
:10162000060800000008000005080000010800008E
:10163000010800000608000000080000040800007F
:101640000008000001080000070800000208000070
:10165000040800000008000001080000060800005F
:10166000010800000408000001080000FF07000056
:101670000408000000080000050800000108000040
:101680000008000004080000020800000308000031
:101690000108000000080000060800000108000022
:1016A00002080000FF070000010800000608000013
:1016B0000108000003080000020800000308000001
:1016C00004080000FF0700000408000000080000F4
:1016D000FF070000050800000208000002080000E3
:1016E000FF070000000800000608000001080000D5
:1016F00003080000010800000108000006080000BF
:10170000FF070000040800000108000000080000B6
:1017100003080000010800000408000000080000A1
:101720000108000004080000010800000308000090
:10173000FF07000000080000070800000008000084
:10174000030800000108000002080000050800006E
:10175000000800000408000000080000FE07000068
:101760000508000000080000020800000008000052
:10177000FF07000006080000010800000108000043
:101780000008000000080000050800000008000034
:101790000308000002080000000800000408000020
:1017A000FF0700000408000001080000FE07000019
:1017B0000408000001080000020800000008000002
:1017C00000080000040800000008000002080000F3
:1017D000000800000208000004080000FF070000E5
:1017E0000308000000080000FF07000005080000D3
:1017F00000080000020800000008000002080000C5
:1018000006080000FF0700000308000001080000B0
:10181000000800000608000000080000030800009F
:1018200000080000FF070000060800000008000094
:10183000020800000108000001080000050800007F
:101840000008000004080000FF0700000008000076
:10185000040800000008000002080000FF07000064
:101860000108000005080000000800000108000051
:101870000108000001080000050800000008000041
:101880000308000000080000000800000508000030
:101890000108000002080000000800000008000025
:1018A0000508000001080000010800000008000011
:1018B0000208000005080000FF0700000108000002
:1018C000010800000008000004080000FF070000F5
:1018D0000308000000080000FF07000005080000E2
:1018E00001080000020800000008000000080000D5
:1018F00007080000010800000208000001080000BD
:1019000000080000060800000008000000080000B1
:1019100001080000000800000508000000080000A1
:10192000020800000108000000080000050800008F
:101930000108000002080000010800000108000082
:10194000060800000008000001080000FF07000072
:101950000208000005080000FF0700000208000060
:101960000108000001080000030800000008000052
:10197000020800000208000001080000050800003D
:101980000208000002080000000800000008000033
:10199000070800000108000002080000010800001C
:1019A000010800000608000000080000010800000F
:1019B00001080000010800000608000000080000FF
:1019C00003080000020800000108000004080000ED
:1019D00002080000020800000008000001080000E2
:1019E00006080000000800000208000001080000CE
:1019F00002080000050800000108000003080000BC
:101A000001080000000800000308000000080000B2
:101A1000030800000108000000080000050800009D
:101A2000010800000108000000080000FF07000096
:101A3000070800000008000001080000020800007C
:101A40000008000004080000FF0700000308000071
:101A50000108000000080000040800000108000060
:101A600001080000FF070000000800000608000051
:101A70000108000001080000000800000208000042
:101A8000050800000008000000080000020800002F
:101A9000000800000608000000080000030800001D
:101AA0000008000000080000040800000108000011
:101AB00001080000010800000108000006080000FD
:101AC00000080000020800000208000002080000F0
:101AD00005080000000800000208000002080000DD
:101AE0000008000003080000FF07000003080000D2
:101AF00001080000000800000308000001080000C1
:101B000001080000000800000008000005080000AF
:101B100001080000020800000008000001080000A1
:101B2000050800000008000000080000020800008E
:101B3000000800000408000001080000010800007F
:101B4000020800000008000004080000010800006E
:101B5000010800000008000000080000050800005F
:101B6000FF07000001080000010800000108000054
:101B7000040800000008000002080000000800003F
:101B8000000800000408000002080000010800002E
:101B900000080000FF070000060800000008000021
:101BA00000080000FF070000010800000508000011
:101BB000FE07000000080000020800000008000006
:101BC00005080000FE0700000108000002080000F0
:101BD00002080000060800000008000002080000DB
:101BE00001080000000800000608000001080000CD
:101BF00001080000010800000108000004080000BE
:101C0000FF070000000800000208000001080000B3
:101C1000040800000008000003080000010800009C
:101C2000000800000408000001080000010800008E
:101C3000010800000008000005080000010800007D
:101C40000008000000080000000800000408000070
:101C500001080000FF070000010800000008000064
:101C600004080000FF07000001080000020800004F
:101C7000000800000508000000080000010800003E
:101C8000010800000008000005080000000800002E
:101C9000FE07000001080000010800000408000021
:101CA0000008000001080000020800000108000010
:101CB00005080000FF0700000108000001080000FF
:101CC00000080000040800000208000001080000ED
:101CD000000800000108000006080000FF070000DF
:101CE00000080000010800000008000004080000CF
:101CF00000080000020800000208000000080000C0
:101D000003080000010800000008000002080000AD
:101D1000FF0700000708000001080000000800009D
:101D2000030800000008000005080000FF0700008D
:101D30000108000002080000000800000708000079
:101D4000010800000108000000080000020800006F
:101D5000060800000008000000080000030800005A
:101D60000108000004080000FF070000020800004E
:101D7000020800000108000003080000010800003C
:101D8000020800000108000000080000050800002B
:101D90000008000001080000010800000108000020
:101DA000060800000008000001080000020800000A
:101DB00000080000050800000008000000080000FE
:101DC00002080000FF0700000508000001080000ED
:101DD00000080000010800000208000004080000DC
:101DE000FF070000010800000208000001080000D1
:101DF00005080000000800000108000003080000BA
:101E0000FF070000040800000008000002080000AE
:101E1000010800000008000006080000000800009B
:101E2000000800000108000000080000050800008C
:101E3000FF070000FF070000020800000208000082
:101E400004080000FF07000003080000020800006B
:101E5000000800000508000001080000020800005A
:101E6000000800000008000005080000000800004D
:101E7000000800000008000002080000030800003D
:101E8000FF0700000008000002080000FF07000034
:101E9000050800000008000001080000010800001B
:101EA000000800000508000000080000FE07000010
:101EB000010800000008000005080000FF070000FE
:101EC000FF070000020800000008000004080000EE
:101ED000FE0700000208000005080000FF070000E0
:101EE00003080000000800000008000001080000CE
:101EF000FE070000060800000108000001080000BD
:101F0000000800000208000004080000FF070000AD
:101F1000000800000308000000080000030800009B
:101F2000FF0700000008000003080000FF07000092
:101F30000408000001080000000800000308000079
:101F4000FF0700000608000000080000000800006D
:101F5000020800000208000005080000FE0700005B
:101F6000FF0700000308000001080000050800004A
:091F7000FF070000010800000851
:00000001FF
