:020000042000DA
:040FAC000E0800002B
:100FB0000E0800000E0800000E0800000E080000D9
:100FC0000D0800000E080000110800000F080000C6
:100FD0000E0800000C0800000F0800000E080000BA
:100FE0000E0800000F0800000C0800000F080000A9
:100FF0000F0800000E0800000F0800000C08000099
:101000000F0800000D0800000F0800000F08000086
:101010000D080000100800000E0800000F08000076
:101020000F0800000D0800000F0800000E08000067
:101030000F0800000F0800000E0800000F08000055
:101040000F0800000F0800000E0800000C08000048
:101050000E0800000F0800000F0800000F08000035
:101060000D0800000F0800000E0800001108000025
:101070000E0800000D080000100800000F08000016
:101080000F0800000E0800000E0800000E08000007
:101090000E0800000E0800000F0800000D080000F8
:1010A0000F0800000E0800000F0800000F080000E5
:1010B0000F0800000F0800000F08000010080000D3
:1010C0000E0800000D0800000E0800000E080000C9
:1010D000100800000E0800000C0800000F080000B7
:1010E0000F0800000E080000100800000E080000A5
:1010F000100800000F080000100800001008000091
:101100000F0800000E0800000F0800000E08000085
:101110000D0800000F080000100800000F08000074
:101120000F0800000F0800000E0800001008000063
:101130000F080000100800000E0800000E08000054
:101140000F0800000F0800000E0800000F08000044
:101150000D0800000F080000100800000F08000034
:101160000E0800000C0800000F0800000F08000027
:101170000E0800000F0800000C0800000E08000018
:101180000D0800000F0800000E0800000E08000007
:101190000E0800000E0800000E0800000E080000F7
:1011A0000F080000100800000F0800000F080000E2
:1011B0000E0800000B0800000E0800000F080000D9
:1011C0000E0800000E0800000D0800000E080000C8
:1011D0000F0800000E0800000F0800000C080000B7
:1011E0000F0800000E0800000E0800000F080000A5
:1011F0000E0800000E0800000F0800001008000094
:101200000E0800000E0800000F0800000E08000085
:101210000D080000100800000E0800000F08000074
:10122000100800000E0800000F0800000D08000064
:101230000E0800000F0800000E0800000F08000054
:101240000E0800000E0800000E0800000E08000046
:101250000D0800000D0800000E0800000E08000038
:101260000E0800000E0800000C0800001008000026
:10127000100800000F0800000F0800000E08000012
:101280000E0800000D0800000F0800000E08000006
:101290000E0800000F0800000F0800000E080000F4
:1012A0000F0800000D0800000F0800000E080000E5
:1012B0000E0800000D0800000D0800000F080000D7
:1012C0000E0800000E0800000F0800000C080000C7
:1012D0000F0800000F0800000F0800000F080000B2
:1012E0000D0800000F0800000F0800000E080000A5
:1012F0000F0800000D0800000D0800000F08000096
:101300000F0800000F0800000D0800001008000082
:101310000F0800000E0800000E0800000C08000076
:10132000100800000E0800000F0800000F08000061
:101330000C0800000D080000100800000F08000055
:10134000100800000B080000100800000D08000045
:101350000F0800000E0800000D0800000E08000035
:101360000F0800000E0800000F0800000E08000023
:101370000F0800000F0800000E0800000E08000013
:101380000D0800000E0800000F0800000F08000004
:101390000E0800000D0800001008000010080000F2
:1013A0000E0800000F0800000D0800000E080000E5
:1013B0000E0800000F0800000F0800000D080000D4
:1013C0000E0800000E0800000F0800000E080000C4
:1013D0000C0800000F0800000E0800000F080000B5
:1013E0000E0800000D0800000F0800000E080000A5
:1013F0000F0800000F0800000E0800000E08000093
:101400000F0800000F0800000F0800000C08000083
:101410000E0800000F0800000E0800000F08000072
:101420000F0800000F080000100800000F0800005F
:10143000110800000E0800000F0800000E08000050
:101440000F0800000F0800000E0800000E08000042
:101450000F0800000E0800000F0800000E08000032
:10146000100800000F0800000E0800000D08000022
:101470000E0800000F0800000F0800000E08000012
:101480000F0800000D0800000F0800000F08000002
:101490000F0800000F0800000D0800000E080000F3
:1014A0000F0800000F080000100800000D080000E1
:1014B0000F0800000E0800000E0800000F080000D2
:1014C0000C0800000F0800000F0800000F080000C3
:1014D0000E0800000E0800000E0800000F080000B3
:1014E0000E0800000F0800000E0800000F080000A2
:1014F0000F080000100800000F0800000D08000091
:101500000E0800000F0800000F0800000F08000080
:101510000D0800000E080000100800000F08000071
:10152000100800000E0800000E0800000E08000061
:101530000F0800000F0800000D0800000D08000053
:101540000F0800000F0800000E0800000C08000043
:101550000F0800000F0800000F0800000F0800002F
:101560000E0800000F0800000F080000100800001F
:10157000100800000E0800000E0800000F08000010
:101580000E0800000E0800000D0800000E08000004
:101590000E0800000F0800000E0800000D080000F3
:1015A0000F0800000F0800000E0800000F080000E0
:1015B0000D0800000F0800000E0800000D080000D4
:1015C0000F0800000D0800000F0800000E080000C2
:1015D0000F0800000F0800000C0800000F080000B2
:1015E0000E0800000F0800000E0800000D080000A3
:1015F000100800000F0800000F0800000E0800008F
:101600000E0800000E080000100800000E08000080
:101610000F0800000D080000100800000F0800006F
:101620000E0800000F0800000D0800000D08000063
:101630000E080000100800000F0800000D08000050
:101640000E0800000F0800000F0800000F0800003F
:101650000D0800000F0800000F0800000E08000031
:101660000F0800000C0800000E0800000F08000022
:101670000F0800000F0800000C0800000F08000011
:101680000F0800000E0800000E0800000C08000003
:101690000F080000100800000F0800000F080000ED
:1016A0000E0800000F0800000E0800000E080000E1
:1016B0000E0800000D0800000F0800000F080000D1
:1016C0000F0800000E0800000D0800000E080000C2
:1016D0000F08000011080000110800000D080000AC
:1016E000100800000F0800000F0800000F0800009D
:1016F0000D080000100800000E0800000F08000090
:101700000F0800000D0800000F0800000E08000080
:101710000E0800000E0800000E0800000F08000070
:101720000F0800000F0800000F0800000D0800005F
:101730000F0800000E0800000F0800000F0800004E
:101740000F0800000F080000100800000E0800003D
:10175000100800000E0800000F0800000E0800002E
:101760000F080000100800000E0800000F0800001D
:101770000E0800000E0800000F0800000F0800000F
:101780000E0800000F0800000F08000010080000FD
:101790000E0800000E0800000F0800000F080000EF
:1017A0000F0800000E0800000F0800000F080000DE
:1017B0000E0800000F0800000C0800000F080000D1
:1017C0000F0800000F0800000E0800000D080000C0
:1017D0000E0800000E0800000F08000010080000AE
:1017E0000D080000100800000F0800000E0800009F
:1017F0000F0800000C0800000E0800000F08000091
:101800000E080000100800000E0800000E0800007E
:10181000100800000E0800000E0800000C08000070
:10182000100800000E0800000E0800000F0800005D
:101830000D0800000F0800000F0800000E0800004F
:101840000F0800000E0800000F0800000F0800003D
:101850000F0800000E0800000C0800000E08000031
:101860000F0800000F080000100800000C0800001E
:101870000F0800000F0800000F0800000E0800000D
:101880000D0800000F0800000F0800000E080000FF
:101890000F0800000D0800000F0800000F080000EE
:1018A0000E080000100800000D0800000F080000DE
:1018B0000E0800000F0800000F0800000D080000CF
:1018C0000F0800000E0800000E0800000F080000BE
:1018D0000D0800000F0800000E0800000E080000B0
:1018E0000F0800000E0800000F0800000E0800009E
:1018F0000F080000100800000E080000100800008B
:1019000010080000100800000E0800000D0800007C
:101910000E0800000F0800000F0800000F0800006C
:101920000D0800000F080000100800000D0800005E
:101930000F0800000E0800000F0800000E0800004D
:101940000F0800000F0800000D080000100800003C
:10195000100800000D0800000F0800000C0800002F
:101960000E0800000F0800000E0800000E0800001E
:101970000D08000010080000100800000F0800000B
:101980000D0800000C0800001008000010080000FE
:101990000F0800000F0800000D0800000F080000ED
:1019A0000F0800000F080000100800000D080000DC
:1019B000100800000E0800000E0800000F080000CC
:1019C0000E0800000F0800000E08000010080000BC
:1019D0000E0800000D0800000F0800000E080000AF
:1019E0000F0800000F0800000E0800000E0800009D
:1019F0000F0800000E0800000E0800000D0800008F
:101A00000D0800000F080000100800000E0800007C
:101A10000C0800000F0800000F0800000E0800006E
:101A20000F0800000E080000100800000F0800005A
:101A30000F0800000F0800000D0800000F0800004C
:101A40000E0800000F080000100800000D0800003C
:101A5000100800000F080000100800000F08000028
:101A60000D0800000F0800000F0800000E0800001D
:101A70000E0800000C0800000E0800000F0800000F
:101A80000F0800000F0800000D0800000D080000FE
:101A90000F0800000F0800000F0800000E080000EB
:101AA00010080000100800000F0800000E080000D9
:101AB0000C0800000E0800000E0800000F080000CF
:101AC0000D0800000D0800000F0800000E080000BF
:101AD0000F080000100800000D0800000E080000AC
:101AE0000F0800000E0800000E0800000D0800009E
:101AF0000F0800000E0800000E0800000E0800008D
:101B00000D0800000F0800000F0800000F0800007B
:101B10000F0800000D0800000F0800000F0800006B
:101B2000100800000F0800000D0800000F0800005A
:101B3000100800000F0800000E0800000D0800004B
:101B40000F0800000F0800000F0800000E0800003A
:101B50000E0800000F080000100800000F08000029
:101B6000100800000E080000100800000E08000019
:101B70000F0800000F0800000E0800000D0800000C
:101B80000F0800000E0800000E0800000D080000FD
:101B90000F0800000F0800000E0800000F080000EA
:101BA0000D0800000F0800000E0800000F080000DC
:101BB000100800000D0800000F08000010080000C9
:101BC000100800000F0800000D0800000E080000BB
:101BD0000E0800000F0800000F0800000E080000AB
:101BE000100800000E080000100800001008000097
:101BF0000D0800000F0800000E0800000E0800008D
:101C00000F0800000D0800000F0800000F0800007A
:101C10000F0800000F0800000E0800000E0800006A
:101C20000E080000100800000F0800000E08000059
:101C30000F0800000F0800000F0800000E08000049
:101C40000C0800000F0800000F0800000F0800003B
:101C50000F0800000C0800000E0800000E0800002D
:101C6000100800000E0800000D0800000D0800001C
:101C70000F0800000F0800000F0800000D0800000A
:101C80000E0800000E080000100800000F080000F9
:101C90000D0800000E0800000F0800000F080000EB
:101CA0000F0800000C0800000F08000010080000DA
:101CB000100800000F0800000E0800000F080000C8
:101CC000100800000E080000100800000E080000B8
:101CD0000F0800000E080000100800000E080000A9
:101CE0000E08000010080000100800000F08000097
:101CF000100800000C0800000F0800000F0800008A
:101D00000F0800000F0800000D0800000E0800007A
:101D10000E080000100800000F0800000D08000069
:101D20000E0800000F0800000F0800000F08000058
:101D30000C0800000E0800000F0800000F0800004B
:101D4000100800000D0800000F0800000F08000038
:101D50000F0800000F0800000D0800000E0800002A
:101D60000E080000100800000E0800000E08000019
:101D70000F0800000E0800000F0800000E08000009
:101D80000E0800000F0800000F0800000E080000F9
:101D90000F0800000C0800000E0800000D080000ED
:101DA0000F0800000E0800000D08000010080000D9
:101DB0000E0800000F0800000F0800000D080000CA
:101DC0000F0800000F0800000F0800000F080000B7
:101DD0000E0800000F0800000E0800000E080000AA
:101DE0000E0800000F0800000F0800000F08000098
:101DF000100800000E0800000D0800000F08000089
:101E00000F0800000F0800000F0800000D08000078
:101E1000100800000F0800000F0800000F08000065
:101E20000D0800000F0800000F0800000E08000059
:101E30000F0800000F080000100800001008000044
:101E40000F0800000F0800000D0800000F08000038
:101E5000100800000F0800000E0800000C08000029
:101E60000E080000100800000F0800000F08000016
:101E70000E0800000F0800000F0800000F08000007
:101E80000E0800000E0800000F0800000F080000F8
:101E9000100800000F0800000D0800000F080000E7
:101EA0000E0800000F080000100800000D080000D8
:101EB0000E0800000E0800000F0800000E080000C9
:101EC0000E0800000F080000100800000F080000B6
:101ED0000F0800000E0800000F0800000E080000A8
:101EE0000E0800000E0800000E0800000E0800009A
:101EF0000E0800000F0800000F0800000D08000089
:101F00000F0800000F0800000E0800000F08000076
:101F10000D0800000F0800000F0800000E08000068
:101F2000100800000D080000100800000E08000056
:101F30000E080000100800000D0800000F08000047
:091F40000F0800000E0800000F5C
:00000001FF
