:020000042000DA
:040FAC00EC01000054
:100FB000ED0000007A010000890000001601000029
:100FC000F300000080000000360100005200000025
:100FD000FB000000EA00000075000000390100007D
:100FE00057000000FB000000ED000000760000004C
:100FF0003801000052000000FD000000EC0000007D
:10100000780000003901000056000000FD000000DB
:10101000EC000000790000003801000056000000DC
:10102000FD000000ED000000780000003901000024
:1010300058000000FC000000EE00000078000000F6
:101040003901000057000000FC000000EC00000027
:10105000790000003801000056000000FD0000008B
:10106000EC0000007600000038010000570000008E
:10107000FC000000EC0000007700000038010000D8
:1010800058000000FC000000EF00000077000000A6
:101090003601000059000000F9000000ED000000DA
:1010A000770000003801000059000000FD0000003A
:1010B000EE00000077000000390100005800000039
:1010C000FC000000ED000000760000003801000088
:1010D00059000000FA000000F00000007600000057
:1010E0003801000058000000FC000000F000000083
:1010F000760000003801000058000000FB000000EE
:10110000F1000000750000003601000059000000E9
:10111000F7000000F000000075000000350100003D
:1011200058000000F9000000EF000000740000000B
:101130003601000058000000F9000000EF00000038
:10114000770000003501000059000000F8000000A1
:10115000F100000075000000380100005800000098
:10116000F9000000F00000007400000035010000EC
:101170005B000000F8000000F100000074000000B7
:101180003501000059000000F8000000F0000000E8
:10119000750000003501000059000000F800000053
:1011A000F100000074000000370100005A00000048
:1011B000F9000000F000000073000000360100009C
:1011C0005A000000F9000000F30000007200000067
:1011D0003601000059000000F8000000F000000097
:1011E00073000000360100005A000000F800000003
:1011F000F300000072000000360100005B000000F8
:10120000F8000000F3000000740000003501000049
:101210005A000000F7000000F50000007000000018
:10122000370100005B000000F8000000F40000003F
:1012300073000000370100005A000000F6000000B3
:10124000F300000074000000380100005B000000A3
:10125000F8000000F40000007200000035010000FA
:101260005C000000F9000000F500000070000000C4
:10127000360100005B000000F7000000F4000000F1
:1012800071000000350100005C000000F600000065
:10129000F400000071000000370100005C00000055
:1012A000F5000000F40000007100000035010000AE
:1012B0005C000000F7000000F40000007400000073
:1012C000370100005C000000F8000000F60000009C
:1012D00074000000340100005E000000F700000010
:1012E000F700000073000000350100005D00000001
:1012F000F8000000F6000000730000003601000056
:101300005C000000F8000000F70000007200000020
:10131000350100005C000000F9000000F50000004D
:1013200073000000360100005D000000F5000000C1
:10133000F5000000710000003401000059000000B9
:10134000F6000000F7000000730000003501000007
:101350005C000000F6000000F600000071000000D4
:10136000360100005D000000F5000000F400000000
:1013700070000000340100005B000000F400000079
:10138000F700000070000000360100005D00000062
:10139000F6000000F70000007000000035010000BA
:1013A0005D000000F6000000F80000007100000081
:1013B000340100005E000000F8000000F6000000AC
:1013C00070000000350100005C000000F800000023
:1013D000F500000071000000350100005C00000015
:1013E000F6000000F500000071000000350100006B
:1013F0005E000000F6000000F70000007100000031
:10140000340100005C000000F7000000F60000005E
:1014100070000000340100005E000000F5000000D4
:10142000F800000070000000350100005C000000C2
:10143000F5000000F400000070000000350100001D
:101440005D000000F5000000F500000070000000E5
:10145000340100005D000000F6000000F60000000E
:1014600071000000340100005E000000F600000082
:10147000F700000070000000350100005D00000072
:10148000F4000000F80000007000000035010000CA
:101490005D000000F5000000F80000007000000092
:1014A000320100005E000000F5000000F6000000C0
:1014B00070000000350100005D000000F400000035
:1014C000F800000070000000350100005C00000022
:1014D000F8000000F6000000710000003501000077
:1014E0005D000000F6000000F50000007000000044
:1014F000340100005D000000F4000000F80000006E
:101500006E000000350100005D000000F2000000E8
:10151000F800000071000000340100005D000000D0
:10152000F5000000F8000000700000003401000029
:101530005E000000F7000000F80000006D000000F1
:10154000350100005D000000F4000000F70000001D
:1015500071000000350100005D000000F700000090
:10156000F800000070000000350100005C00000081
:10157000F7000000F90000007000000035010000D5
:101580005F000000F4000000F80000006E000000A2
:10159000330100005D000000F5000000F6000000CF
:1015A0006E000000340100005D000000F500000046
:1015B000F600000071000000340100005D00000032
:1015C000F6000000F6000000700000003701000087
:1015D0005C000000F5000000F80000006D00000055
:1015E000350100005C000000F5000000F70000007D
:1015F00071000000350100005D000000F5000000F2
:10160000F900000070000000350100005A000000E1
:10161000F4000000F7000000700000003601000038
:101620005E000000F5000000F800000071000000FE
:10163000350100005D000000F7000000F50000002B
:1016400071000000340100005B000000F5000000A4
:10165000F80000006E000000350100005B00000093
:10166000F7000000F60000007000000034010000E8
:101670005D000000F5000000F80000006F000000B1
:10168000340100005D000000F6000000F6000000DC
:1016900070000000340100005C000000F500000054
:1016A000F50000006E000000350100005B00000046
:1016B000F5000000F500000071000000340100009A
:1016C0005B000000F4000000F70000007000000064
:1016D000340100005A000000F4000000F500000092
:1016E00072000000350100005D000000F500000000
:1016F000F500000071000000350100005B000000F3
:10170000F7000000F6000000710000003501000045
:101710005C000000F6000000F70000007000000010
:10172000370100005D000000F8000000F600000036
:1017300071000000360100005C000000F7000000AE
:10174000F700000070000000360100005C0000009F
:10175000F7000000F60000007400000038010000EF
:101760005F000000F7000000F700000072000000BA
:10177000340100005E000000F6000000F5000000EB
:1017800071000000340100005C000000F700000060
:10179000F700000073000000360100005B0000004D
:1017A000F5000000F60000007300000036010000A4
:1017B0005A000000F8000000F6000000740000006D
:1017C000350100005C000000F5000000F40000009E
:1017D00073000000350100005C000000F60000000E
:1017E000F500000073000000340100005A00000002
:1017F000F8000000F4000000740000003501000053
:101800005C000000F5000000F40000007300000020
:10181000350100005D000000F6000000F600000049
:1018200073000000350100005C000000F6000000BD
:10183000F500000073000000360100005B000000AE
:10184000F6000000F1000000710000003601000009
:101850005C000000F7000000F500000074000000CC
:10186000360100005B000000F7000000F4000000FB
:10187000730000003501000059000000F80000006E
:10188000F200000074000000360100005B00000060
:10189000F7000000F30000007400000036010000B3
:1018A0005A000000F6000000F4000000760000007E
:1018B0003601000059000000F9000000F4000000AB
:1018C00075000000360100005A000000F80000001A
:1018D000F500000075000000360100005B0000000C
:1018E000FA000000F300000075000000380100005D
:1018F0005B000000F6000000F30000007400000030
:101900003501000059000000F5000000F100000062
:10191000740000003501000058000000F6000000CF
:10192000F0000000740000003501000059000000C4
:10193000F8000000F0000000760000003601000012
:1019400058000000F7000000F000000075000000E3
:101950003501000059000000F9000000F00000000F
:1019600075000000360100005A000000F900000078
:10197000F000000076000000360100005800000072
:10198000F9000000F00000007900000035010000BF
:1019900059000000F9000000EE0000007600000091
:1019A0003601000059000000FC000000F0000000BB
:1019B000780000003701000058000000F900000026
:1019C000ED00000076000000380100005900000022
:1019D000F9000000EC000000780000003701000072
:1019E00058000000FA000000EF000000780000003E
:1019F0003701000057000000F9000000ED00000072
:101A0000770000003701000059000000FB000000D3
:101A1000F0000000780000003801000058000000CD
:101A2000FA000000F10000007A0000003801000018
:101A30005A000000FC000000ED0000007B000000E8
:101A40003801000057000000FC000000EE0000001C
:101A5000790000003701000058000000FB00000082
:101A6000F00000007800000038010000590000007C
:101A7000FE000000EF0000007C00000038010000C4
:101A800058000000FC000000F0000000780000009A
:101A90003801000058000000FB000000EE000000CC
:101AA000780000003901000059000000FC0000002F
:101AB000EF00000079000000380100005500000030
:101AC000FC000000ED0000007A000000380100007A
:101AD00058000000FF000000ED000000780000004A
:101AE0003901000058000000FC000000EB0000007D
:101AF0007A0000003801000058000000FD000000DE
:101B0000EC0000007B0000003801000056000000DF
:101B1000FD000000ED0000007C0000003801000026
:101B200057000000FD000000EC0000007B000000FA
:101B30003901000056000000FE000000E90000002E
:101B40007C0000003801000059000000FC0000008B
:101B5000EA0000007C000000380100005600000090
:101B6000FE000000EC0000007D00000039010000D4
:101B700058000000FD000000EC0000007D000000A7
:101B8000380100005600000000010000E0000000E5
:101B9000750000003501000051000000FB0000004E
:101BA000E80000007B000000380100005500000044
:101BB000FC000000EA0000007D0000003901000088
:101BC00055000000FF000000EA0000007D0000005A
:101BD0003801000054000000FD000000E700000094
:101BE0007C0000003801000054000000FD000000EF
:101BF000E80000007C0000003901000054000000F3
:101C000001010000DE000000770000003401000048
:101C10005400000000010000DD000000760000001C
:101C2000370100005300000000010000DD0000004B
:101C3000750000003501000053000000FD000000A9
:101C4000E50000007D0000003801000055000000A4
:101C500001010000DF0000007800000037010000F3
:101C600054000000FF000000E600000080000000BB
:101C70003301000051000000FD000000E4000000FE
:101C80007E00000039010000540000000001000047
:101C9000DC00000078000000350100005300000067
:101CA000FD000000E400000080000000330100009F
:101CB0005000000000010000DA0000007800000081
:101CC000360100005000000000010000DA000000B2
:101CD000780000003501000050000000FD00000009
:101CE000E200000080000000330100004F0000000F
:101CF000FB000000E2000000810000003301000052
:101D00005000000000010000D80000007900000031
:101D1000360100005000000000010000D500000066
:101D200078000000350100005100000001010000B2
:101D3000D8000000770000003501000050000000CE
:101D400001010000D8000000790000003601000009
:101D50005000000001010000D800000078000000E1
:101D6000340100004E00000001010000D700000017
:101D70007800000038010000500000000101000060
:101D8000D90000007900000036010000500000007A
:101D900002010000D80000007900000036010000B8
:101DA0005000000001010000DA000000780000008F
:101DB000370100004D00000001010000D5000000C7
:101DC0007800000036010000510000000201000010
:101DD000D80000007B000000380100004D0000002A
:101DE00002010000D70000007C0000003801000064
:101DF0004E00000003010000D60000007900000042
:101E0000360100005100000002010000D500000072
:101E10007C000000350100005100000002010000BC
:101E2000D50000007D000000380100004D000000DA
:101E300001010000D50000007D0000003801000015
:101E40004D00000002010000D50000007A000000F3
:101E5000380100004F00000003010000D600000020
:101E60007D000000390100004F0000000401000067
:101E7000D50000007D000000360100004D0000008C
:101E800003010000D30000007C00000037010000C7
:101E90004D00000003010000D30000007C000000A2
:101EA000350100005000000003010000D3000000D5
:101EB0007D00000037010000500000000301000019
:101EC000D20000007F000000380100004C0000003C
:101ED00003010000D20000007D0000003801000076
:101EE0004C00000005010000D20000007D00000051
:101EF000380100004E00000005010000D300000082
:101F00007F000000390100004D00000006010000C4
:101F1000D20000007F0000003901000050000000E6
:101F200005010000D1000000810000003101000027
:101F30004600000000010000D0000000800000000A
:091F40003101000047000000011E
:00000001FF
