:020000042000DA
:0801C800000000002E00000001
:1001D000000000000000000000000000000000001F
:1001E0008E0F0000860E00003D0E0000FF0F000085
:1001F00004090000000000000000000000000000F2
:1002000000000000000000000000000000000000EE
:1002100000000000000000000E0000003902000095
:10022000FF0F0000FF0F0000FF0F0000FF0F000096
:10023000760D00000000000000000000000000003B
:1002400000000000000000000000000000000000AE
:10025000000000000000000000000000000000009E
:100260001E000000FF0F0000FF0F0000FF0F000046
:10027000FF0F0000DB0F0000000000000000000086
:10028000000000000000000000000000000000006E
:1002900000000000070100005B00000000000000FB
:1002A000000000003A000000F90F0000800E00007E
:1002B000C20E0000610F0000CA090000000000002B
:1002C000000000000000000000000000000000002E
:1002D000000000000000000000000000E40000003A
:1002E00000000000F8020000FF0F0000FF0F0000F8
:1002F000FF0F0000FF0F00007C0D00000000000059
:1003000000000000000000000000000000000000ED
:10031000000000001000000000000000610100006B
:1003200000000000000000000A000000FF0F0000B5
:10033000FF0F0000FF0F0000AD0F0000FF0F0000D7
:1003400000000000000000000000000000000000AD
:050350000000000000A8
:00000001FF
