:020000042000DA
:040FAC000602000039
:100FB0009C000000E4010000CF000000FA000000E7
:100FC000EE000000C20000008F0100007C00000065
:100FD0003A010000970000006F000000D6010000F9
:100FE000C6000000F4000000EE000000C200000097
:100FF0008F010000800000002A0100008F00000027
:101000006E000000CF010000C6000000EF000000ED
:10101000EF000000C00000008F0100007C00000015
:1010200036010000A400000074000000D60100009A
:10103000C7000000EE000000F6000000C200000043
:101040008F0100007C0000002F010000A6000000BE
:101050006F000000D4010000C6000000E6000000A0
:10106000F6000000C00000008F0100007C000000BE
:101070002F010000AA00000074000000CF01000052
:10108000C6000000E4000000FC000000C2000000F8
:101090008E0100007C0000002E010000AE00000068
:1010A00074000000D4010000C7000000E40000004C
:1010B000FE000000C20000008C0100007E00000065
:1010C0002C010000AE00000074000000D4010000FC
:1010D000C7000000E4000000FC000000C0000000A9
:1010E0008E0100007C00000026010000AE00000020
:1010F00074000000CF010000C6000000DC0000000A
:10110000FE000000C00000008C0100007E00000016
:101110001F010000AA0000006F000000CC010000C9
:10112000C6000000D800000000010000B40000006C
:1011300082010000740000001A010000AA000000F3
:101140006F000000CC010000C6000000D6000000C7
:1011500000010000B60000008401000077000000DC
:101160001A010000AF0000006F000000CC01000079
:10117000C6000000D600000006010000B600000016
:10118000820100007600000016010000B20000009D
:101190006F000000CE010000C7000000D400000076
:1011A00007010000B6000000820100007600000088
:1011B00016010000B40000006F000000CC01000028
:1011C000C6000000CF0000000C010000B7000000C6
:1011D00080010000770000000F010000B400000053
:1011E0006F000000CC010000C7000000CE0000002E
:1011F0000A010000B6000000800100007600000037
:101200000F010000BA0000006F000000CA010000DA
:10121000C7000000CA0000000C010000B60000007A
:1012200080010000760000000E010000BC000000FC
:101230006F000000CA010000C6000000CA000000E4
:101240000E010000B60000008001000076000000E2
:101250000C010000C00000006F000000CC01000085
:10126000C6000000C400000012010000B60000002B
:101270007E0100008600000007010000BE000000A3
:101280006F000000C7010000C6000000C40000009D
:1012900016010000B6000000800100007700000089
:1012A00006010000C00000006F000000C701000040
:1012B000C6000000C200000017010000B6000000D8
:1012C0007E0100008600000004010000C400000050
:1012D0006F000000C6010000C6000000BE00000054
:1012E00017010000B60000007C010000860000002D
:1012F00002010000C70000006F000000C7010000ED
:10130000C6000000BE0000001E010000B600000084
:101310007C01000087000000FE000000E4000000E7
:101320007C000000CE010000CE000000BC000000E8
:1013300026010000B70000007E01000086000000CA
:10134000FE000000EA0000007C000000CE0100006A
:10135000CE000000BC00000027010000B700000024
:101360007C01000087000000FA000000EC00000093
:101370007E000000CC010000CE000000BA0000009A
:101380002C010000B80000007C0100008600000075
:10139000F7000000EE0000007C000000CC0100001F
:1013A000CC000000B70000002F010000B6000000D4
:1013B0007C01000086000000F6000000EF00000045
:1013C0007E000000CC010000CC000000AF00000057
:1013D00033010000B60000007A0100008600000022
:1013E000F4000000F600000080000000C2010000D0
:1013F000C4000000AE00000032010000B600000092
:101400007C01000086000000EF000000F6000000F4
:101410007E000000CA010000CE000000AF00000006
:101420003C010000BA0000007E01000087000000BF
:10143000EF000000FA0000007C000000CC0100007A
:10144000CC000000AE0000003C010000BA0000002B
:101450007C01000086000000EC000000FC000000A1
:101460007E000000CC010000CE000000AC000000B7
:101470003C010000B70000007A0100008700000076
:10148000EC000000000100006F000000C601000039
:10149000C7000000AA00000040010000B7000000E3
:1014A0007A01000086000000E7000000040100004F
:1014B00074000000C6010000C6000000A400000087
:1014C00040010000B60000007A0100008600000024
:1014D000E4000000040100006E000000C4010000F0
:1014E000C60000009F00000044010000B70000009B
:1014F0007701000086000000E40000000601000003
:101500006F000000C2010000C70000009E00000044
:1015100046010000B60000007701000086000000D0
:10152000DE0000000C01000074000000C401000097
:10153000C70000009E0000004A010000BA00000041
:101540007A01000087000000DC0000000C010000B0
:101550006F000000C2010000C70000009C000000F6
:101560004C010000B70000007A0100008700000075
:10157000DE0000000E01000074000000C201000047
:10158000C70000009A0000004E010000B7000000F4
:10159000770100008A000000DA0000000F0100005F
:1015A00074000000C2010000CA00000098000000A2
:1015B0004F010000BA000000760100008A00000020
:1015C000DA0000001601000074000000C2010000F3
:1015D000CA0000009600000054010000BC0000009A
:1015E000770100008A000000D60000001A01000008
:1015F00074000000C0010000CC0000009400000056
:1016000056010000BC000000760100008A000000C6
:10161000D60000001C01000076000000C20100009E
:10162000CC0000009400000056010000BC00000047
:10163000760100008A000000CF0000001E010000BB
:1016400076000000C0010000CC0000008F00000008
:101650005A010000BE000000770100008C0000006D
:10166000CF0000001F01000076000000C001000054
:10167000CC0000008E0000005F010000BC000000F4
:10168000740100008C000000CE0000002401000066
:1016900077000000C0010000CE0000008E000000B6
:1016A00066010000BE000000760100008E00000010
:1016B000CE0000002701000077000000C0010000FC
:1016C000CE0000008C00000066010000BE0000009B
:1016D000760100008E000000CE0000002601000010
:1016E00077000000C0010000CE000000870000006D
:1016F00067010000BE000000760100008E000000BF
:10170000C70000002A01000076000000C0010000B0
:10171000CC000000860000006A010000BE0000004E
:10172000740100008C000000C60000002E010000C3
:1017300076000000BE010000CC0000008400000024
:101740006E010000BC000000760100008E00000069
:10175000C70000002F01000076000000BE0100005D
:10176000CC000000820000006C010000BC00000002
:101770006F0100008C000000C20000002F0100007B
:1017800076000000B7010000CC00000080000000DF
:101790006E010000BC0000006F0100008C00000022
:1017A000C00000002F01000074000000BA0100001A
:1017B000CA0000007E00000084010000BC000000A0
:1017C0006F0100008A000000BE000000340100002C
:1017D00076000000BA010000CA0000007C00000092
:1017E00086010000BC0000006E0100008A000000BD
:1017F000BE0000003601000076000000B6010000C7
:10180000CA0000007C00000086010000BC0000004F
:101810006E0100008C000000BE00000036010000D8
:1018200077000000B6010000CC0000007A00000044
:1018300087010000BC0000006C0100008A0000006D
:10184000BA0000003601000076000000B60100007A
:10185000CA000000770000008C010000BC000000FE
:101860006F0100008A000000B70000003601000090
:1018700076000000B4010000CA00000076000000FD
:101880008E010000BC0000006C0100008C00000014
:10189000B70000003A01000074000000B40100002D
:1018A000CA000000760000008F010000BC000000AC
:1018B0006C0100008A000000B60000003C0100003E
:1018C00074000000B4010000CA00000074000000B1
:1018D0008F010000BA000000670100008A000000CC
:1018E000B40000004001000074000000AF010000DF
:1018F000C70000006F0000008E010000BC00000067
:101900006601000087000000AF00000040010000F9
:1019100074000000AF010000C70000006F0000006D
:101920008F010000BA000000670100008A0000007B
:10193000AF0000004001000076000000AF01000091
:10194000C70000006F00000094010000BC00000010
:101950006A0100008C000000AF00000040010000A0
:1019600076000000AF010000CA0000006F00000018
:1019700096010000BC000000670100008A00000022
:10198000AF0000004601000077000000AE0100003B
:10199000CA0000006E00000096010000BE000000BA
:1019A000670100008A000000AF000000460100004F
:1019B00077000000B4010000CA0000006E000000C3
:1019C0009A010000BE000000670100008C000000CA
:1019D000AF0000004601000076000000AE010000EC
:1019E000CA0000006E0000009A010000BE00000066
:1019F000640100008A000000AE0000004601000003
:101A000076000000AE010000C80000006C0000007D
:101A10009A010000BE000000670100008A0000007B
:101A2000AC0000004801000077000000A7010000A2
:101A3000C70000006A0000009C010000BC0000001C
:101A4000640100008C000000AF0000004C010000A9
:101A500076000000AE010000CA0000006C0000002B
:101A60009E010000C0000000640100008A00000028
:101A7000AF0000004C01000077000000AC01000046
:101A8000C70000006C0000009E010000BE000000C6
:101A90005F0100008A000000AE0000004E0100005F
:101AA00076000000AC010000CC0000006E000000D9
:101AB0009E010000C00000005F0100008A000000DD
:101AC000AF0000004E01000077000000A6010000FA
:101AD000CA0000006E0000009F010000C00000006E
:101AE0005C0100008C000000AF0000004F0100000E
:101AF0007A000000AA010000CC0000006E00000087
:101B00009F010000C00000005F0100008A0000008B
:101B1000AF0000004F0100007A000000A7010000A4
:101B2000CC0000006F000000A4010000C000000015
:101B30005E0100008C000000AF00000054010000B6
:101B40007A000000A6010000CC0000006E0000003A
:101B5000A6010000C00000005E0100008C00000033
:101B6000B4000000570100007C000000A601000046
:101B7000CC0000006F000000A4010000C2000000C3
:101B80005C0100008E000000AF0000005601000064
:101B90007A000000A6010000CC0000006F000000E9
:101BA000A6010000C40000005C0100008E000000DF
:101BB000B4000000570100007E000000A4010000F6
:101BC000CE0000006F000000A7010000C40000006C
:101BD0005C0100008E000000B40000005C01000009
:101BE0007E000000A4010000CC0000006F00000097
:101BF000A7010000C20000005E0100008E0000008E
:101C0000AF0000005A0100007C000000A2010000AB
:101C1000CE0000006F000000AE010000C200000016
:101C20005A0100008E000000AF0000005A010000C1
:101C30007C000000A2010000CE0000006F00000048
:101C4000AC010000C20000005C0100008E0000003A
:101C5000AF0000005A0100007C0000009F0100005E
:101C6000CC0000006F000000AE010000C2000000C8
:101C70005A0100008E000000AF0000005C0100006F
:101C80007A0000009F010000CC0000006F000000FF
:101C9000AE010000C2000000560100008C000000F0
:101CA000AF0000005E0100007C0000009E0100000B
:101CB000CC0000006E000000AF010000C00000007A
:101CC000520100008C000000AF0000005E01000027
:101CD0007C0000009E010000CC0000006F000000AE
:101CE000AF010000C2000000540100008C000000A1
:101CF000AF000000640100007C0000009E010000B5
:101D0000CA0000006E000000AF010000C200000029
:101D1000540100008C000000AF0000005F010000D3
:101D20007A0000009F010000CC0000006E0000005F
:101D3000B6010000C4000000540100008C00000047
:101D4000AF0000005F0100007C0000009A0100006D
:101D5000CC0000006E000000B6010000C4000000CE
:101D6000540100008E000000B20000006401000079
:101D70007C0000009C010000CC0000006E00000010
:101D8000B6010000C4000000520100008C000000F9
:101D9000AF000000660100007C0000009A01000016
:101DA000CC0000006F000000B7010000C40000007C
:101DB0004C0100008A000000AF0000006601000036
:101DC0007C00000097010000CA0000006E000000C7
:101DD000B7010000C20000004E0100008C000000AE
:101DE000AF000000660100007C00000097010000C9
:101DF000CC0000006E000000B7010000C20000002F
:101E00004E0100008C000000AF0000006A010000DD
:101E10007C00000094010000CC0000006E00000077
:101E2000BC010000C2000000470100008C0000005F
:101E3000AF0000006A0100007C0000008F0100007C
:101E4000CA0000006F000000BC010000C2000000DA
:101E50004A0100008E000000AF0000006C0100008D
:101E60007E00000094010000CC0000006F00000024
:101E7000BE010000C40000004C0100008E00000004
:101E8000B40000006F010000800000008A01000023
:101E9000C40000006C000000BA010000C200000095
:101EA000470100008C000000B40000006C0100003D
:101EB0008000000087010000C20000006C000000EC
:101EC000BC010000C20000004A0100008E000000BA
:101ED000B40000006F0100008000000084010000D9
:101EE000C40000006E000000BC010000C40000003F
:101EF000460100008E000000B40000006F010000E9
:101F00007E0000008F010000CE0000006F00000086
:101F1000C2010000C6000000460100008C00000065
:101F2000B20000006F0100007E0000008E01000082
:101F3000CC0000006F000000C0010000C4000000E1
:091F4000480100008C000000AF14
:00000001FF
