Forward Design Changes Report
-----------------------------

Report File:        C:\Users\tony zhang\Desktop\EE445L\ee445l2017\Lab7\Lab7_TM4C123starter(1) (PCB - Forward Design Changes Report).txt
Report Written:     Friday, October 27, 2017
Design Path:        C:\Users\tony zhang\Desktop\EE445L\ee445l2017\Lab7\Lab7_TM4C123starter(1).pcb
Design Title:       
Created:            1/29/2013 12:01:41 AM
Last Saved:         10/27/2017 5:45:35 AM
Editing Time:       2436 min
Units:              inches (precision 3)

Net N0016 renamed to PA7


End Of Report.
